\relax 
\providecommand\hyper@newdestlabel[2]{}
\providecommand\HyperFirstAtBeginDocument{\AtBeginDocument}
\HyperFirstAtBeginDocument{\ifx\hyper@anchor\@undefined
\global\let\oldcontentsline\contentsline
\gdef\contentsline#1#2#3#4{\oldcontentsline{#1}{#2}{#3}}
\global\let\oldnewlabel\newlabel
\gdef\newlabel#1#2{\newlabelxx{#1}#2}
\gdef\newlabelxx#1#2#3#4#5#6{\oldnewlabel{#1}{{#2}{#3}}}
\AtEndDocument{\ifx\hyper@anchor\@undefined
\let\contentsline\oldcontentsline
\let\newlabel\oldnewlabel
\fi}
\fi}
\global\let\hyper@last\relax 
\gdef\HyperFirstAtBeginDocument#1{#1}
\providecommand\HyField@AuxAddToFields[1]{}
\providecommand\HyField@AuxAddToCoFields[2]{}
\abx@aux@sortscheme{none}
\@writefile{toc}{\boolfalse {citerequest}\boolfalse {citetracker}\boolfalse {pagetracker}\boolfalse {backtracker}\relax }
\@writefile{lof}{\boolfalse {citerequest}\boolfalse {citetracker}\boolfalse {pagetracker}\boolfalse {backtracker}\relax }
\@writefile{lot}{\boolfalse {citerequest}\boolfalse {citetracker}\boolfalse {pagetracker}\boolfalse {backtracker}\relax }
\pgfsyspdfmark {pgfid3}{9925800}{26365178}
\pgfsyspdfmark {pgfid4}{15556388}{26365178}
\pgfsyspdfmark {pgfid11}{15328464}{17157700}
\pgfsyspdfmark {pgfid12}{17638584}{17157700}
\pgfsyspdfmark {pgfid10}{15579728}{17157700}
\pgfsyspdfmark {pgfid18}{15389904}{15585001}
\pgfsyspdfmark {pgfid19}{17689192}{15585001}
\pgfsyspdfmark {pgfid17}{15678532}{15585001}
\pgfsyspdfmark {pgfid25}{15548280}{14012302}
\pgfsyspdfmark {pgfid26}{17772840}{14012302}
\pgfsyspdfmark {pgfid24}{15762180}{14012302}
\pgfsyspdfmark {pgfid32}{18106434}{12439603}
\pgfsyspdfmark {pgfid31}{15935212}{12439603}
\pgfsyspdfmark {pgfid34}{17798872}{42425823}
\pgfsyspdfmark {pgfid35}{17798872}{37905250}
\pgfsyspdfmark {pgfid36}{20108992}{40115703}
\pgfsyspdfmark {pgfid33}{15873772}{40120072}
\pgfsyspdfmark {pgfid38}{15646584}{34618925}
\pgfsyspdfmark {pgfid43}{17956704}{36829378}
\pgfsyspdfmark {pgfid44}{20266824}{34618925}
\pgfsyspdfmark {pgfid37}{16031604}{34618925}
\pgfsyspdfmark {pgfid46}{22478640}{26924801}
\pgfsyspdfmark {pgfid45}{15836908}{27024468}
\pgfsyspdfmark {pgfid56}{12051699}{37969643}
\pgfsyspdfmark {pgfid57}{14241150}{40180096}
\pgfsyspdfmark {pgfid55}{10030207}{40180096}
\pgfsyspdfmark {pgfid59}{20297140}{37990645}
\pgfsyspdfmark {pgfid60}{22507593}{40180096}
\pgfsyspdfmark {pgfid58}{18275648}{40180096}
