\relax 
\providecommand\hyper@newdestlabel[2]{}
\providecommand\HyperFirstAtBeginDocument{\AtBeginDocument}
\HyperFirstAtBeginDocument{\ifx\hyper@anchor\@undefined
\global\let\oldcontentsline\contentsline
\gdef\contentsline#1#2#3#4{\oldcontentsline{#1}{#2}{#3}}
\global\let\oldnewlabel\newlabel
\gdef\newlabel#1#2{\newlabelxx{#1}#2}
\gdef\newlabelxx#1#2#3#4#5#6{\oldnewlabel{#1}{{#2}{#3}}}
\AtEndDocument{\ifx\hyper@anchor\@undefined
\let\contentsline\oldcontentsline
\let\newlabel\oldnewlabel
\fi}
\fi}
\global\let\hyper@last\relax 
\gdef\HyperFirstAtBeginDocument#1{#1}
\providecommand\HyField@AuxAddToFields[1]{}
\providecommand\HyField@AuxAddToCoFields[2]{}
\abx@aux@sortscheme{none}
\@writefile{toc}{\boolfalse {citerequest}\boolfalse {citetracker}\boolfalse {pagetracker}\boolfalse {backtracker}\relax }
\@writefile{lof}{\boolfalse {citerequest}\boolfalse {citetracker}\boolfalse {pagetracker}\boolfalse {backtracker}\relax }
\@writefile{lot}{\boolfalse {citerequest}\boolfalse {citetracker}\boolfalse {pagetracker}\boolfalse {backtracker}\relax }
\abx@aux@cite{SDBS}
\abx@aux@cite{RSC}
\@writefile{lof}{\contentsline {figure}{\numberline {1}{\ignorespaces IR spectra from in class experiment (benzoic acid)}}{3}{figure.1}}
\@writefile{lof}{\contentsline {figure}{\numberline {2}{\ignorespaces IR spectra from SDBS \supercite {SDBS} (benzoic acid)}}{3}{figure.2}}
\abx@aux@cite{NIST}
\@writefile{lof}{\contentsline {figure}{\numberline {3}{\ignorespaces IR spectra from in class experiment (aspirin)}}{4}{figure.3}}
\@writefile{lof}{\contentsline {figure}{\numberline {4}{\ignorespaces IR spectra from NIST \supercite {NIST} (aspirin)}}{4}{figure.4}}
\@writefile{lof}{\contentsline {figure}{\numberline {5}{\ignorespaces IR spectra from in class experiment (methanol)}}{5}{figure.5}}
\@writefile{lof}{\contentsline {figure}{\numberline {6}{\ignorespaces IR spectra from SDBS \supercite {SDBS} (methanol)}}{6}{figure.6}}
