\relax 
\providecommand\hyper@newdestlabel[2]{}
\providecommand\HyperFirstAtBeginDocument{\AtBeginDocument}
\HyperFirstAtBeginDocument{\ifx\hyper@anchor\@undefined
\global\let\oldcontentsline\contentsline
\gdef\contentsline#1#2#3#4{\oldcontentsline{#1}{#2}{#3}}
\global\let\oldnewlabel\newlabel
\gdef\newlabel#1#2{\newlabelxx{#1}#2}
\gdef\newlabelxx#1#2#3#4#5#6{\oldnewlabel{#1}{{#2}{#3}}}
\AtEndDocument{\ifx\hyper@anchor\@undefined
\let\contentsline\oldcontentsline
\let\newlabel\oldnewlabel
\fi}
\fi}
\global\let\hyper@last\relax 
\gdef\HyperFirstAtBeginDocument#1{#1}
\providecommand\HyField@AuxAddToFields[1]{}
\providecommand\HyField@AuxAddToCoFields[2]{}
\abx@aux@sortscheme{none}
\@writefile{toc}{\boolfalse {citerequest}\boolfalse {citetracker}\boolfalse {pagetracker}\boolfalse {backtracker}\relax }
\@writefile{lof}{\boolfalse {citerequest}\boolfalse {citetracker}\boolfalse {pagetracker}\boolfalse {backtracker}\relax }
\@writefile{lot}{\boolfalse {citerequest}\boolfalse {citetracker}\boolfalse {pagetracker}\boolfalse {backtracker}\relax }
\pgfsyspdfmark {pgfid2}{19800600}{9756778}
\pgfsyspdfmark {pgfid1}{18099432}{13490655}
\pgfsyspdfmark {pgfid4}{20734800}{43286529}
\pgfsyspdfmark {pgfid3}{15032376}{40090046}
\pgfsyspdfmark {pgfid6}{18547611}{31619190}
\pgfsyspdfmark {pgfid5}{16846443}{28422707}
\pgfsyspdfmark {pgfid8}{20734800}{16072089}
\pgfsyspdfmark {pgfid7}{19033632}{19805966}
\pgfsyspdfmark {pgfid10}{20734800}{43286529}
\pgfsyspdfmark {pgfid9}{17033004}{41245106}
\pgfsyspdfmark {pgfid12}{22735428}{28832434}
\pgfsyspdfmark {pgfid11}{17033004}{32566311}
