\relax 
\providecommand\hyper@newdestlabel[2]{}
\providecommand\HyperFirstAtBeginDocument{\AtBeginDocument}
\HyperFirstAtBeginDocument{\ifx\hyper@anchor\@undefined
\global\let\oldcontentsline\contentsline
\gdef\contentsline#1#2#3#4{\oldcontentsline{#1}{#2}{#3}}
\global\let\oldnewlabel\newlabel
\gdef\newlabel#1#2{\newlabelxx{#1}#2}
\gdef\newlabelxx#1#2#3#4#5#6{\oldnewlabel{#1}{{#2}{#3}}}
\AtEndDocument{\ifx\hyper@anchor\@undefined
\let\contentsline\oldcontentsline
\let\newlabel\oldnewlabel
\fi}
\fi}
\global\let\hyper@last\relax 
\gdef\HyperFirstAtBeginDocument#1{#1}
\providecommand\HyField@AuxAddToFields[1]{}
\providecommand\HyField@AuxAddToCoFields[2]{}
\abx@aux@sortscheme{none}
\@writefile{toc}{\boolfalse {citerequest}\boolfalse {citetracker}\boolfalse {pagetracker}\boolfalse {backtracker}\relax }
\@writefile{lof}{\boolfalse {citerequest}\boolfalse {citetracker}\boolfalse {pagetracker}\boolfalse {backtracker}\relax }
\@writefile{lot}{\boolfalse {citerequest}\boolfalse {citetracker}\boolfalse {pagetracker}\boolfalse {backtracker}\relax }
\pgfsyspdfmark {pgfid26}{21129027}{28429562}
\pgfsyspdfmark {pgfid31}{23339480}{26219109}
\pgfsyspdfmark {pgfid32}{25549933}{28429562}
\pgfsyspdfmark {pgfid25}{21451744}{28429562}
\pgfsyspdfmark {pgfid34}{15710534}{22500492}
\pgfsyspdfmark {pgfid39}{17899984}{20311041}
\pgfsyspdfmark {pgfid40}{20089435}{22500492}
\pgfsyspdfmark {pgfid33}{15889324}{22500492}
\pgfsyspdfmark {pgfid42}{21784386}{14394988}
\pgfsyspdfmark {pgfid47}{23994839}{12184535}
\pgfsyspdfmark {pgfid48}{26184290}{14394988}
\pgfsyspdfmark {pgfid41}{21984179}{14394988}
\pgfsyspdfmark {pgfid116}{22664950}{38858456}
\pgfsyspdfmark {pgfid117}{24912767}{38858456}
\pgfsyspdfmark {pgfid122}{24875403}{36548336}
\pgfsyspdfmark {pgfid127}{24875403}{41168576}
\pgfsyspdfmark {pgfid132}{27085856}{38858456}
\pgfsyspdfmark {pgfid115}{22816547}{38858456}
\pgfsyspdfmark {pgfid138}{15429648}{30228666}
\pgfsyspdfmark {pgfid139}{17886223}{30233035}
\pgfsyspdfmark {pgfid144}{17640101}{27922915}
\pgfsyspdfmark {pgfid149}{17640101}{32543155}
\pgfsyspdfmark {pgfid154}{19850554}{30233035}
\pgfsyspdfmark {pgfid137}{15715001}{30228666}
\pgfsyspdfmark {pgfid160}{22009591}{21824615}
\pgfsyspdfmark {pgfid161}{24011560}{21824615}
\pgfsyspdfmark {pgfid166}{24220044}{19514495}
\pgfsyspdfmark {pgfid171}{24220044}{24134735}
\pgfsyspdfmark {pgfid176}{26430497}{21824615}
\pgfsyspdfmark {pgfid159}{22161188}{21824615}
\pgfsyspdfmark {pgfid202}{21493313}{10187547}
\pgfsyspdfmark {pgfid204}{18983094}{41213246}
\pgfsyspdfmark {pgfid203}{19282554}{41213246}
\pgfsyspdfmark {pgfid214}{23514805}{36178926}
\pgfsyspdfmark {pgfid213}{21493313}{36278593}
\pgfsyspdfmark {pgfid231}{19700410}{19888021}
\pgfsyspdfmark {pgfid232}{21769191}{19888021}
\pgfsyspdfmark {pgfid230}{19879200}{19888021}
